{
  "$schema": "./node_modules/nx/schemas/nx-schema.json",
  "npmScope": "nx-next-trpc-test",
  "affected": {
    "defaultBase": "main"
  },
  "implicitDependencies": {
    "package.json": {
      "dependencies": "*",
      "devDependencies": "*"
    },
    ".eslintrc.json": "*"
  },
  "tasksRunnerOptions": {
    "default": {
      "runner": "@nrwl/nx-cloud",
      "options": {
        "cacheableOperations": [
          "build",
          "lint",
          "test",
          "e2e"
        ],
        "accessToken": "Mzk5ZThkNGQtN2M1YS00YjU3LWI1YWQtNGU3ZWEzZGIzNzhkfHJlYWQtd3JpdGU="
      }
    }
  },
  "targetDefaults": {
    "build": {
      "dependsOn": [
        "^build"
      ]
    }
  },
  "generators": {
    "@nrwl/react": {
      "application": {
        "babel": true
      }
    },
    "@nrwl/next": {
      "application": {
        "style": "css",
        "linter": "eslint"
      }
    }
  },
  "defaultProject": "e-shop"
}
